shyft.dashboard.examples.selector\_views
========================================

.. automodule:: shyft.dashboard.examples.selector_views

   
   .. rubric:: Classes

   .. autosummary::
   
      CompSelectorViewsExample
   