shyft.dashboard.time\_series.tools.table\_tools
===============================================

.. automodule:: shyft.dashboard.time_series.tools.table_tools

   
   .. rubric:: Classes

   .. autosummary::
   
      ExportTableDataButton
      TableTool
   
   .. rubric:: Exceptions

   .. autosummary::
   
      TableToolError
   