shyft.dashboard.examples.time\_series\_scatter\_renderer
========================================================

.. automodule:: shyft.dashboard.examples.time_series_scatter_renderer

   
   .. rubric:: Classes

   .. autosummary::
   
      TsScatterViewerExample
   