shyft.dashboard.time\_series.ts\_viewer
=======================================

.. automodule:: shyft.dashboard.time_series.ts_viewer

   
   .. rubric:: Classes

   .. autosummary::
   
      TsViewer
   
   .. rubric:: Exceptions

   .. autosummary::
   
      TsViewerError
   