shyft.dashboard.time\_series.layouts
====================================

.. automodule:: shyft.dashboard.time_series.layouts

   
   .. rubric:: Classes

   .. autosummary::
   
      ViewContainerTabs
   
   .. rubric:: Exceptions

   .. autosummary::
   
      ViewContainerTabsError
   