shyft.dashboard.time\_series.view\_container.view\_container\_base
==================================================================

.. automodule:: shyft.dashboard.time_series.view_container.view_container_base

   
   .. rubric:: Classes

   .. autosummary::
   
      BaseViewContainer
   